[
	{
		"state_name": "Aragatsotn",
		"state_code": "AG",
		"country_code": "AM"
	},
	{
		"state_name": "Ararat",
		"state_code": "AR",
		"country_code": "AM"
	},
	{
		"state_name": "Armavir",
		"state_code": "AV",
		"country_code": "AM"
	},
	{
		"state_name": "Gegharkunik",
		"state_code": "GR",
		"country_code": "AM"
	},
	{
		"state_name": "Kotayk",
		"state_code": "KT",
		"country_code": "AM"
	},
	{
		"state_name": "Lori",
		"state_code": "LO",
		"country_code": "AM"
	},
	{
		"state_name": "Shirak",
		"state_code": "SH",
		"country_code": "AM"
	},
	{
		"state_name": "Syunik",
		"state_code": "SU",
		"country_code": "AM"
	},
	{
		"state_name": "Tavush",
		"state_code": "TV",
		"country_code": "AM"
	},
	{
		"state_name": "Vayots-Dzor",
		"state_code": "VD",
		"country_code": "AM"
	},
	{
		"state_name": "Yerevan",
		"state_code": "ER",
		"country_code": "AM"
	},
	{
		"state_name": "Bonaire",
		"state_code": "BN",
		"country_code": "AN"
	},
	{
		"state_name": "Curacao",
		"state_code": "CR",
		"country_code": "AN"
	},
	{
		"state_name": "St. Maarten",
		"state_code": "SM",
		"country_code": "AN"
	},
	{
		"state_name": "Australian Capital Territory",
		"state_code": "AT",
		"country_code": "AU"
	},
	{
		"state_name": "New South Wales",
		"state_code": "NW",
		"country_code": "AU"
	},
	{
		"state_name": "Northern Territory",
		"state_code": "NT",
		"country_code": "AU"
	},
	{
		"state_name": "Queensland",
		"state_code": "QL",
		"country_code": "AU"
	},
	{
		"state_name": "South Australia",
		"state_code": "SA",
		"country_code": "AU"
	},
	{
		"state_name": "Tasmania",
		"state_code": "TA",
		"country_code": "AU"
	},
	{
		"state_name": "Victoria",
		"state_code": "VI",
		"country_code": "AU"
	},
	{
		"state_name": "Western Australia",
		"state_code": "WA",
		"country_code": "AU"
	},
	{
		"state_name": "Alberta",
		"state_code": "AB",
		"country_code": "CA"
	},
	{
		"state_name": "British Columbia",
		"state_code": "BC",
		"country_code": "CA"
	},
	{
		"state_name": "Manitoba",
		"state_code": "MB",
		"country_code": "CA"
	},
	{
		"state_name": "New Brunswick",
		"state_code": "NB",
		"country_code": "CA"
	},
	{
		"state_name": "Newfoundland and Labrador",
		"state_code": "NL",
		"country_code": "CA"
	},
	{
		"state_name": "Northwest Territories",
		"state_code": "NT",
		"country_code": "CA"
	},
	{
		"state_name": "Nova Scotia",
		"state_code": "NS",
		"country_code": "CA"
	},
	{
		"state_name": "Nunavut",
		"state_code": "NU",
		"country_code": "CA"
	},
	{
		"state_name": "Ontario",
		"state_code": "ON",
		"country_code": "CA"
	},
	{
		"state_name": "Prince Edward Island",
		"state_code": "PE",
		"country_code": "CA"
	},
	{
		"state_name": "Quebec",
		"state_code": "QC",
		"country_code": "CA"
	},
	{
		"state_name": "Saskatchewan",
		"state_code": "SK",
		"country_code": "CA"
	},
	{
		"state_name": "Yukon",
		"state_code": "YT",
		"country_code": "CA"
	},
	{
		"state_name": "Anhui",
		"state_code": "34",
		"country_code": "CN"
	},
	{
		"state_name": "Beijing",
		"state_code": "11",
		"country_code": "CN"
	},
	{
		"state_name": "Chongqing",
		"state_code": "50",
		"country_code": "CN"
	},
	{
		"state_name": "Fujian",
		"state_code": "35",
		"country_code": "CN"
	},
	{
		"state_name": "Gansu",
		"state_code": "62",
		"country_code": "CN"
	},
	{
		"state_name": "Guangdong",
		"state_code": "44",
		"country_code": "CN"
	},
	{
		"state_name": "Guangxi Zhuang",
		"state_code": "45",
		"country_code": "CN"
	},
	{
		"state_name": "Guizhou",
		"state_code": "52",
		"country_code": "CN"
	},
	{
		"state_name": "Hainan",
		"state_code": "46",
		"country_code": "CN"
	},
	{
		"state_name": "Hebei",
		"state_code": "13",
		"country_code": "CN"
	},
	{
		"state_name": "Heilongjiang",
		"state_code": "23",
		"country_code": "CN"
	},
	{
		"state_name": "Henan",
		"state_code": "41",
		"country_code": "CN"
	},
	{
		"state_name": "Hubei",
		"state_code": "42",
		"country_code": "CN"
	},
	{
		"state_name": "Hunan",
		"state_code": "43",
		"country_code": "CN"
	},
	{
		"state_name": "Jiangsu",
		"state_code": "32",
		"country_code": "CN"
	},
	{
		"state_name": "Jiangxi",
		"state_code": "36",
		"country_code": "CN"
	},
	{
		"state_name": "Jilin",
		"state_code": "22",
		"country_code": "CN"
	},
	{
		"state_name": "Liaoning",
		"state_code": "21",
		"country_code": "CN"
	},
	{
		"state_name": "Nei Mongol",
		"state_code": "15",
		"country_code": "CN"
	},
	{
		"state_name": "Ningxia Hui",
		"state_code": "64",
		"country_code": "CN"
	},
	{
		"state_name": "Qinghai",
		"state_code": "63",
		"country_code": "CN"
	},
	{
		"state_name": "Shaanxi",
		"state_code": "61",
		"country_code": "CN"
	},
	{
		"state_name": "Shandong",
		"state_code": "37",
		"country_code": "CN"
	},
	{
		"state_name": "Shanghai",
		"state_code": "31",
		"country_code": "CN"
	},
	{
		"state_name": "Sichuan",
		"state_code": "51",
		"country_code": "CN"
	},
	{
		"state_name": "Tianjin",
		"state_code": "12",
		"country_code": "CN"
	},
	{
		"state_name": "Xinjiang Uygur",
		"state_code": "65",
		"country_code": "CN"
	},
	{
		"state_name": "Xizang",
		"state_code": "54",
		"country_code": "CN"
	},
	{
		"state_name": "Yunnan",
		"state_code": "53",
		"country_code": "CN"
	},
	{
		"state_name": "Zhejiang",
		"state_code": "33",
		"country_code": "CN"
	},
	{
		"state_name": "Alava",
		"state_code": "01",
		"country_code": "ES"
	},
	{
		"state_name": "Albacete",
		"state_code": "02",
		"country_code": "ES"
	},
	{
		"state_name": "Alicante",
		"state_code": "03",
		"country_code": "ES"
	},
	{
		"state_name": "Almeria",
		"state_code": "04",
		"country_code": "ES"
	},
	{
		"state_name": "Asturias",
		"state_code": "33",
		"country_code": "ES"
	},
	{
		"state_name": "Avila",
		"state_code": "05",
		"country_code": "ES"
	},
	{
		"state_name": "Badajoz",
		"state_code": "06",
		"country_code": "ES"
	},
	{
		"state_name": "Baleares",
		"state_code": "07",
		"country_code": "ES"
	},
	{
		"state_name": "Barcelona",
		"state_code": "08",
		"country_code": "ES"
	},
	{
		"state_name": "Burgos",
		"state_code": "09",
		"country_code": "ES"
	},
	{
		"state_name": "Caceres",
		"state_code": "10",
		"country_code": "ES"
	},
	{
		"state_name": "Cadiz",
		"state_code": "11",
		"country_code": "ES"
	},
	{
		"state_name": "Cantabria",
		"state_code": "39",
		"country_code": "ES"
	},
	{
		"state_name": "Castellon",
		"state_code": "12",
		"country_code": "ES"
	},
	{
		"state_name": "Ceuta",
		"state_code": "51",
		"country_code": "ES"
	},
	{
		"state_name": "Ciudad Real",
		"state_code": "13",
		"country_code": "ES"
	},
	{
		"state_name": "Cordoba",
		"state_code": "14",
		"country_code": "ES"
	},
	{
		"state_name": "Cuenca",
		"state_code": "16",
		"country_code": "ES"
	},
	{
		"state_name": "Girona",
		"state_code": "17",
		"country_code": "ES"
	},
	{
		"state_name": "Granada",
		"state_code": "18",
		"country_code": "ES"
	},
	{
		"state_name": "Guadalajara",
		"state_code": "19",
		"country_code": "ES"
	},
	{
		"state_name": "Guipuzcoa",
		"state_code": "20",
		"country_code": "ES"
	},
	{
		"state_name": "Huelva",
		"state_code": "21",
		"country_code": "ES"
	},
	{
		"state_name": "Huesca",
		"state_code": "22",
		"country_code": "ES"
	},
	{
		"state_name": "Jaen",
		"state_code": "23",
		"country_code": "ES"
	},
	{
		"state_name": "La Rioja",
		"state_code": "26",
		"country_code": "ES"
	},
	{
		"state_name": "Las Palmas",
		"state_code": "35",
		"country_code": "ES"
	},
	{
		"state_name": "Leon",
		"state_code": "24",
		"country_code": "ES"
	},
	{
		"state_name": "Lleida",
		"state_code": "25",
		"country_code": "ES"
	},
	{
		"state_name": "Lugo",
		"state_code": "27",
		"country_code": "ES"
	},
	{
		"state_name": "Madrid",
		"state_code": "28",
		"country_code": "ES"
	},
	{
		"state_name": "Malaga",
		"state_code": "29",
		"country_code": "ES"
	},
	{
		"state_name": "Melilla",
		"state_code": "52",
		"country_code": "ES"
	},
	{
		"state_name": "Murcia",
		"state_code": "30",
		"country_code": "ES"
	},
	{
		"state_name": "Navarra",
		"state_code": "31",
		"country_code": "ES"
	},
	{
		"state_name": "Ourense",
		"state_code": "32",
		"country_code": "ES"
	},
	{
		"state_name": "Palencia",
		"state_code": "34",
		"country_code": "ES"
	},
	{
		"state_name": "Pontevedra",
		"state_code": "36",
		"country_code": "ES"
	},
	{
		"state_name": "Salamanca",
		"state_code": "37",
		"country_code": "ES"
	},
	{
		"state_name": "Santa Cruz de Tenerife",
		"state_code": "38",
		"country_code": "ES"
	},
	{
		"state_name": "Segovia",
		"state_code": "40",
		"country_code": "ES"
	},
	{
		"state_name": "Sevilla",
		"state_code": "41",
		"country_code": "ES"
	},
	{
		"state_name": "Soria",
		"state_code": "42",
		"country_code": "ES"
	},
	{
		"state_name": "Tarragona",
		"state_code": "43",
		"country_code": "ES"
	},
	{
		"state_name": "Teruel",
		"state_code": "44",
		"country_code": "ES"
	},
	{
		"state_name": "Toledo",
		"state_code": "45",
		"country_code": "ES"
	},
	{
		"state_name": "Valencia",
		"state_code": "46",
		"country_code": "ES"
	},
	{
		"state_name": "Valladolid",
		"state_code": "47",
		"country_code": "ES"
	},
	{
		"state_name": "Vizcaya",
		"state_code": "48",
		"country_code": "ES"
	},
	{
		"state_name": "Zamora",
		"state_code": "49",
		"country_code": "ES"
	},
	{
		"state_name": "Zaragoza",
		"state_code": "50",
		"country_code": "ES"
	},
	{
		"state_name": "England",
		"state_code": "EN",
		"country_code": "GB"
	},
	{
		"state_name": "Northern Ireland",
		"state_code": "NI",
		"country_code": "GB"
	},
	{
		"state_name": "Scotland",
		"state_code": "SD",
		"country_code": "GB"
	},
	{
		"state_name": "Wales",
		"state_code": "WS",
		"country_code": "GB"
	},
	{
		"state_name": "Gaza Strip",
		"state_code": "GZ",
		"country_code": "IL"
	},
	{
		"state_name": "Other",
		"state_code": "OT",
		"country_code": "IL"
	},
	{
		"state_name": "West Bank",
		"state_code": "WB",
		"country_code": "IL"
	},
	{
		"state_name": "Andaman & Nicobar Islands",
		"state_code": "AI",
		"country_code": "IN"
	},
	{
		"state_name": "Andhra Pradesh",
		"state_code": "AN",
		"country_code": "IN"
	},
	{
		"state_name": "Arunachal Pradesh",
		"state_code": "AR",
		"country_code": "IN"
	},
	{
		"state_name": "Assam",
		"state_code": "AS",
		"country_code": "IN"
	},
	{
		"state_name": "Bihar",
		"state_code": "BI",
		"country_code": "IN"
	},
	{
		"state_name": "Chandigarh",
		"state_code": "CA",
		"country_code": "IN"
	},
	{
		"state_name": "Chhatisgarh",
		"state_code": "CH",
		"country_code": "IN"
	},
	{
		"state_name": "Dadra & Nagar Haveli",
		"state_code": "DD",
		"country_code": "IN"
	},
	{
		"state_name": "Daman & Diu",
		"state_code": "DA",
		"country_code": "IN"
	},
	{
		"state_name": "Delhi",
		"state_code": "DE",
		"country_code": "IN"
	},
	{
		"state_name": "Goa",
		"state_code": "GO",
		"country_code": "IN"
	},
	{
		"state_name": "Gujarat",
		"state_code": "GU",
		"country_code": "IN"
	},
	{
		"state_name": "Haryana",
		"state_code": "HA",
		"country_code": "IN"
	},
	{
		"state_name": "Himachal Pradesh",
		"state_code": "HI",
		"country_code": "IN"
	},
	{
		"state_name": "Jammu & Kashmir",
		"state_code": "JA",
		"country_code": "IN"
	},
	{
		"state_name": "Jharkhand",
		"state_code": "JH",
		"country_code": "IN"
	},
	{
		"state_name": "Karnataka",
		"state_code": "KA",
		"country_code": "IN"
	},
	{
		"state_name": "Kerala",
		"state_code": "KE",
		"country_code": "IN"
	},
	{
		"state_name": "Lakshadweep",
		"state_code": "LA",
		"country_code": "IN"
	},
	{
		"state_name": "Madhya Pradesh",
		"state_code": "MD",
		"country_code": "IN"
	},
	{
		"state_name": "Maharashtra",
		"state_code": "MH",
		"country_code": "IN"
	},
	{
		"state_name": "Manipur",
		"state_code": "MN",
		"country_code": "IN"
	},
	{
		"state_name": "Meghalaya",
		"state_code": "ME",
		"country_code": "IN"
	},
	{
		"state_name": "Mizoram",
		"state_code": "MI",
		"country_code": "IN"
	},
	{
		"state_name": "Nagaland",
		"state_code": "NA",
		"country_code": "IN"
	},
	{
		"state_name": "Orissa",
		"state_code": "OR",
		"country_code": "IN"
	},
	{
		"state_name": "Pondicherry",
		"state_code": "PO",
		"country_code": "IN"
	},
	{
		"state_name": "Punjab",
		"state_code": "PU",
		"country_code": "IN"
	},
	{
		"state_name": "Rajasthan",
		"state_code": "RA",
		"country_code": "IN"
	},
	{
		"state_name": "Sikkim",
		"state_code": "SI",
		"country_code": "IN"
	},
	{
		"state_name": "Tamil Nadu",
		"state_code": "TA",
		"country_code": "IN"
	},
	{
		"state_name": "Tripura",
		"state_code": "TR",
		"country_code": "IN"
	},
	{
		"state_name": "Uttar Pradesh",
		"state_code": "UT",
		"country_code": "IN"
	},
	{
		"state_name": "Uttaranchal",
		"state_code": "UA",
		"country_code": "IN"
	},
	{
		"state_name": "West Bengal",
		"state_code": "WE",
		"country_code": "IN"
	},
	{
		"state_name": "Ahmadi va Kohkiluyeh",
		"state_code": "BO",
		"country_code": "IR"
	},
	{
		"state_name": "Ardabil",
		"state_code": "AR",
		"country_code": "IR"
	},
	{
		"state_name": "Azarbayjan-e Gharbi",
		"state_code": "AG",
		"country_code": "IR"
	},
	{
		"state_name": "Azarbayjan-e Sharqi",
		"state_code": "AS",
		"country_code": "IR"
	},
	{
		"state_name": "Bushehr",
		"state_code": "BU",
		"country_code": "IR"
	},
	{
		"state_name": "Chaharmahal va Bakhtiari",
		"state_code": "CM",
		"country_code": "IR"
	},
	{
		"state_name": "Esfahan",
		"state_code": "ES",
		"country_code": "IR"
	},
	{
		"state_name": "Fars",
		"state_code": "FA",
		"country_code": "IR"
	},
	{
		"state_name": "Gilan",
		"state_code": "GI",
		"country_code": "IR"
	},
	{
		"state_name": "Gorgan",
		"state_code": "GO",
		"country_code": "IR"
	},
	{
		"state_name": "Hamadan",
		"state_code": "HA",
		"country_code": "IR"
	},
	{
		"state_name": "Hormozgan",
		"state_code": "HO",
		"country_code": "IR"
	},
	{
		"state_name": "Ilam",
		"state_code": "IL",
		"country_code": "IR"
	},
	{
		"state_name": "Kerman",
		"state_code": "KE",
		"country_code": "IR"
	},
	{
		"state_name": "Kermanshah",
		"state_code": "BA",
		"country_code": "IR"
	},
	{
		"state_name": "Khorasan-e Junoubi",
		"state_code": "KJ",
		"country_code": "IR"
	},
	{
		"state_name": "Khorasan-e Razavi",
		"state_code": "KR",
		"country_code": "IR"
	},
	{
		"state_name": "Khorasan-e Shomali",
		"state_code": "KS",
		"country_code": "IR"
	},
	{
		"state_name": "Khuzestan",
		"state_code": "KH",
		"country_code": "IR"
	},
	{
		"state_name": "Kordestan",
		"state_code": "KO",
		"country_code": "IR"
	},
	{
		"state_name": "Lorestan",
		"state_code": "LO",
		"country_code": "IR"
	},
	{
		"state_name": "Markazi",
		"state_code": "MR",
		"country_code": "IR"
	},
	{
		"state_name": "Mazandaran",
		"state_code": "MZ",
		"country_code": "IR"
	},
	{
		"state_name": "Qazvin",
		"state_code": "QA",
		"country_code": "IR"
	},
	{
		"state_name": "Qom",
		"state_code": "QO",
		"country_code": "IR"
	},
	{
		"state_name": "Semnan",
		"state_code": "SE",
		"country_code": "IR"
	},
	{
		"state_name": "Sistan va Baluchestan",
		"state_code": "SB",
		"country_code": "IR"
	},
	{
		"state_name": "Tehran",
		"state_code": "TE",
		"country_code": "IR"
	},
	{
		"state_name": "Yazd",
		"state_code": "YA",
		"country_code": "IR"
	},
	{
		"state_name": "Zanjan",
		"state_code": "ZA",
		"country_code": "IR"
	},
	{
		"state_name": "Agrigento",
		"state_code": "AG",
		"country_code": "IT"
	},
	{
		"state_name": "Alessandria",
		"state_code": "AL",
		"country_code": "IT"
	},
	{
		"state_name": "Ancona",
		"state_code": "AN",
		"country_code": "IT"
	},
	{
		"state_name": "Aosta",
		"state_code": "AO",
		"country_code": "IT"
	},
	{
		"state_name": "Arezzo",
		"state_code": "AR",
		"country_code": "IT"
	},
	{
		"state_name": "Ascoli Piceno",
		"state_code": "AP",
		"country_code": "IT"
	},
	{
		"state_name": "Asti",
		"state_code": "AT",
		"country_code": "IT"
	},
	{
		"state_name": "Avellino",
		"state_code": "AV",
		"country_code": "IT"
	},
	{
		"state_name": "Bari",
		"state_code": "BA",
		"country_code": "IT"
	},
	{
		"state_name": "Belluno",
		"state_code": "BL",
		"country_code": "IT"
	},
	{
		"state_name": "Benevento",
		"state_code": "BN",
		"country_code": "IT"
	},
	{
		"state_name": "Bergamo",
		"state_code": "BG",
		"country_code": "IT"
	},
	{
		"state_name": "Biella",
		"state_code": "BI",
		"country_code": "IT"
	},
	{
		"state_name": "Bologna",
		"state_code": "BO",
		"country_code": "IT"
	},
	{
		"state_name": "Bolzano",
		"state_code": "BZ",
		"country_code": "IT"
	},
	{
		"state_name": "Brescia",
		"state_code": "BS",
		"country_code": "IT"
	},
	{
		"state_name": "Brindisi",
		"state_code": "BR",
		"country_code": "IT"
	},
	{
		"state_name": "Cagliari",
		"state_code": "CA",
		"country_code": "IT"
	},
	{
		"state_name": "Caltanissetta",
		"state_code": "CL",
		"country_code": "IT"
	},
	{
		"state_name": "Campobasso",
		"state_code": "CB",
		"country_code": "IT"
	},
	{
		"state_name": "Carbonia-Iglesias",
		"state_code": "CI",
		"country_code": "IT"
	},
	{
		"state_name": "Caserta",
		"state_code": "CE",
		"country_code": "IT"
	},
	{
		"state_name": "Catania",
		"state_code": "CT",
		"country_code": "IT"
	},
	{
		"state_name": "Catanzaro",
		"state_code": "CZ",
		"country_code": "IT"
	},
	{
		"state_name": "Chieti",
		"state_code": "CH",
		"country_code": "IT"
	},
	{
		"state_name": "Como",
		"state_code": "CO",
		"country_code": "IT"
	},
	{
		"state_name": "Cosenza",
		"state_code": "CS",
		"country_code": "IT"
	},
	{
		"state_name": "Cremona",
		"state_code": "CR",
		"country_code": "IT"
	},
	{
		"state_name": "Crotone",
		"state_code": "KR",
		"country_code": "IT"
	},
	{
		"state_name": "Cuneo",
		"state_code": "CN",
		"country_code": "IT"
	},
	{
		"state_name": "Enna",
		"state_code": "EN",
		"country_code": "IT"
	},
	{
		"state_name": "Ferrara",
		"state_code": "FE",
		"country_code": "IT"
	},
	{
		"state_name": "Firenze",
		"state_code": "FI",
		"country_code": "IT"
	},
	{
		"state_name": "Foggia",
		"state_code": "FG",
		"country_code": "IT"
	},
	{
		"state_name": "Forli-Cesena",
		"state_code": "FC",
		"country_code": "IT"
	},
	{
		"state_name": "Frosinone",
		"state_code": "FR",
		"country_code": "IT"
	},
	{
		"state_name": "Genova",
		"state_code": "GE",
		"country_code": "IT"
	},
	{
		"state_name": "Gorizia",
		"state_code": "GO",
		"country_code": "IT"
	},
	{
		"state_name": "Grosseto",
		"state_code": "GR",
		"country_code": "IT"
	},
	{
		"state_name": "Imperia",
		"state_code": "IM",
		"country_code": "IT"
	},
	{
		"state_name": "Isernia",
		"state_code": "IS",
		"country_code": "IT"
	},
	{
		"state_name": "L'Aquila",
		"state_code": "AQ",
		"country_code": "IT"
	},
	{
		"state_name": "La Spezia",
		"state_code": "SP",
		"country_code": "IT"
	},
	{
		"state_name": "Latina",
		"state_code": "LT",
		"country_code": "IT"
	},
	{
		"state_name": "Lecce",
		"state_code": "LE",
		"country_code": "IT"
	},
	{
		"state_name": "Lecco",
		"state_code": "LC",
		"country_code": "IT"
	},
	{
		"state_name": "Livorno",
		"state_code": "LI",
		"country_code": "IT"
	},
	{
		"state_name": "Lodi",
		"state_code": "LO",
		"country_code": "IT"
	},
	{
		"state_name": "Lucca",
		"state_code": "LU",
		"country_code": "IT"
	},
	{
		"state_name": "Macerata",
		"state_code": "MC",
		"country_code": "IT"
	},
	{
		"state_name": "Mantova",
		"state_code": "MN",
		"country_code": "IT"
	},
	{
		"state_name": "Massa-Carrara",
		"state_code": "MS",
		"country_code": "IT"
	},
	{
		"state_name": "Matera",
		"state_code": "MT",
		"country_code": "IT"
	},
	{
		"state_name": "Medio Campidano",
		"state_code": "VS",
		"country_code": "IT"
	},
	{
		"state_name": "Messina",
		"state_code": "ME",
		"country_code": "IT"
	},
	{
		"state_name": "Milano",
		"state_code": "MI",
		"country_code": "IT"
	},
	{
		"state_name": "Modena",
		"state_code": "MO",
		"country_code": "IT"
	},
	{
		"state_name": "Napoli",
		"state_code": "NA",
		"country_code": "IT"
	},
	{
		"state_name": "Novara",
		"state_code": "NO",
		"country_code": "IT"
	},
	{
		"state_name": "Nuoro",
		"state_code": "NU",
		"country_code": "IT"
	},
	{
		"state_name": "Ogliastra",
		"state_code": "OG",
		"country_code": "IT"
	},
	{
		"state_name": "Olbia-Tempio",
		"state_code": "OT",
		"country_code": "IT"
	},
	{
		"state_name": "Oristano",
		"state_code": "OR",
		"country_code": "IT"
	},
	{
		"state_name": "Padova",
		"state_code": "PD",
		"country_code": "IT"
	},
	{
		"state_name": "Palermo",
		"state_code": "PA",
		"country_code": "IT"
	},
	{
		"state_name": "Parma",
		"state_code": "PR",
		"country_code": "IT"
	},
	{
		"state_name": "Pavia",
		"state_code": "PV",
		"country_code": "IT"
	},
	{
		"state_name": "Perugia",
		"state_code": "PG",
		"country_code": "IT"
	},
	{
		"state_name": "Pesaro e Urbino",
		"state_code": "PU",
		"country_code": "IT"
	},
	{
		"state_name": "Pescara",
		"state_code": "PE",
		"country_code": "IT"
	},
	{
		"state_name": "Piacenza",
		"state_code": "PC",
		"country_code": "IT"
	},
	{
		"state_name": "Pisa",
		"state_code": "PI",
		"country_code": "IT"
	},
	{
		"state_name": "Pistoia",
		"state_code": "PT",
		"country_code": "IT"
	},
	{
		"state_name": "Pordenone",
		"state_code": "PN",
		"country_code": "IT"
	},
	{
		"state_name": "Potenza",
		"state_code": "PZ",
		"country_code": "IT"
	},
	{
		"state_name": "Prato",
		"state_code": "PO",
		"country_code": "IT"
	},
	{
		"state_name": "Ragusa",
		"state_code": "RG",
		"country_code": "IT"
	},
	{
		"state_name": "Ravenna",
		"state_code": "RA",
		"country_code": "IT"
	},
	{
		"state_name": "Reggio Calabria",
		"state_code": "RC",
		"country_code": "IT"
	},
	{
		"state_name": "Reggio Emilia",
		"state_code": "RE",
		"country_code": "IT"
	},
	{
		"state_name": "Rieti",
		"state_code": "RI",
		"country_code": "IT"
	},
	{
		"state_name": "Rimini",
		"state_code": "RN",
		"country_code": "IT"
	},
	{
		"state_name": "Roma",
		"state_code": "RM",
		"country_code": "IT"
	},
	{
		"state_name": "Rovigo",
		"state_code": "RO",
		"country_code": "IT"
	},
	{
		"state_name": "Salerno",
		"state_code": "SA",
		"country_code": "IT"
	},
	{
		"state_name": "Sassari",
		"state_code": "SS",
		"country_code": "IT"
	},
	{
		"state_name": "Savona",
		"state_code": "SV",
		"country_code": "IT"
	},
	{
		"state_name": "Siena",
		"state_code": "SI",
		"country_code": "IT"
	},
	{
		"state_name": "Siracusa",
		"state_code": "SR",
		"country_code": "IT"
	},
	{
		"state_name": "Sondrio",
		"state_code": "SO",
		"country_code": "IT"
	},
	{
		"state_name": "Taranto",
		"state_code": "TA",
		"country_code": "IT"
	},
	{
		"state_name": "Teramo",
		"state_code": "TE",
		"country_code": "IT"
	},
	{
		"state_name": "Terni",
		"state_code": "TR",
		"country_code": "IT"
	},
	{
		"state_name": "Torino",
		"state_code": "TO",
		"country_code": "IT"
	},
	{
		"state_name": "Trapani",
		"state_code": "TP",
		"country_code": "IT"
	},
	{
		"state_name": "Trento",
		"state_code": "TN",
		"country_code": "IT"
	},
	{
		"state_name": "Treviso",
		"state_code": "TV",
		"country_code": "IT"
	},
	{
		"state_name": "Trieste",
		"state_code": "TS",
		"country_code": "IT"
	},
	{
		"state_name": "Udine",
		"state_code": "UD",
		"country_code": "IT"
	},
	{
		"state_name": "Varese",
		"state_code": "VA",
		"country_code": "IT"
	},
	{
		"state_name": "Venezia",
		"state_code": "VE",
		"country_code": "IT"
	},
	{
		"state_name": "Verbano Cusio Ossola",
		"state_code": "VB",
		"country_code": "IT"
	},
	{
		"state_name": "Vercelli",
		"state_code": "VC",
		"country_code": "IT"
	},
	{
		"state_name": "Verona",
		"state_code": "VR",
		"country_code": "IT"
	},
	{
		"state_name": "Vibo Valenzia",
		"state_code": "VV",
		"country_code": "IT"
	},
	{
		"state_name": "Vicenza",
		"state_code": "VI",
		"country_code": "IT"
	},
	{
		"state_name": "Viterbo",
		"state_code": "VT",
		"country_code": "IT"
	},
	{
		"state_name": "Aguascalientes",
		"state_code": "AG",
		"country_code": "MX"
	},
	{
		"state_name": "Baja California Norte",
		"state_code": "BN",
		"country_code": "MX"
	},
	{
		"state_name": "Baja California Sur",
		"state_code": "BS",
		"country_code": "MX"
	},
	{
		"state_name": "Campeche",
		"state_code": "CA",
		"country_code": "MX"
	},
	{
		"state_name": "Chiapas",
		"state_code": "CS",
		"country_code": "MX"
	},
	{
		"state_name": "Chihuahua",
		"state_code": "CH",
		"country_code": "MX"
	},
	{
		"state_name": "Coahuila",
		"state_code": "CO",
		"country_code": "MX"
	},
	{
		"state_name": "Colima",
		"state_code": "CM",
		"country_code": "MX"
	},
	{
		"state_name": "Distrito Federal",
		"state_code": "DF",
		"country_code": "MX"
	},
	{
		"state_name": "Durango",
		"state_code": "DO",
		"country_code": "MX"
	},
	{
		"state_name": "Guanajuato",
		"state_code": "GO",
		"country_code": "MX"
	},
	{
		"state_name": "Guerrero",
		"state_code": "GU",
		"country_code": "MX"
	},
	{
		"state_name": "Hidalgo",
		"state_code": "HI",
		"country_code": "MX"
	},
	{
		"state_name": "Jalisco",
		"state_code": "JA",
		"country_code": "MX"
	},
	{
		"state_name": "M\u00c3\u0192\u00c6\u2019\u00c3\u2020\u00e2\u20ac\u2122\u00c3\u0192\u00e2\u20ac\u0161\u00c3\u201a\u00c2\u00a9xico (Estado de)",
		"state_code": "EM",
		"country_code": "MX"
	},
	{
		"state_name": "Michoac\u00c3\u0192\u00c6\u2019\u00c3\u2020\u00e2\u20ac\u2122\u00c3\u0192\u00e2\u20ac\u0161\u00c3\u201a\u00c2\u00a1n",
		"state_code": "MI",
		"country_code": "MX"
	},
	{
		"state_name": "Morelos",
		"state_code": "MO",
		"country_code": "MX"
	},
	{
		"state_name": "Nayarit",
		"state_code": "NY",
		"country_code": "MX"
	},
	{
		"state_name": "Nuevo Le\u00c3\u0192\u00c6\u2019\u00c3\u2020\u00e2\u20ac\u2122\u00c3\u0192\u00e2\u20ac\u0161\u00c3\u201a\u00c2\u00b3n",
		"state_code": "NL",
		"country_code": "MX"
	},
	{
		"state_name": "Oaxaca",
		"state_code": "OA",
		"country_code": "MX"
	},
	{
		"state_name": "Puebla",
		"state_code": "PU",
		"country_code": "MX"
	},
	{
		"state_name": "Quintana Roo",
		"state_code": "QR",
		"country_code": "MX"
	},
	{
		"state_name": "Sinaloa",
		"state_code": "SI",
		"country_code": "MX"
	},
	{
		"state_name": "Sonora",
		"state_code": "SO",
		"country_code": "MX"
	},
	{
		"state_name": "Tabasco",
		"state_code": "TA",
		"country_code": "MX"
	},
	{
		"state_name": "Tamaulipas",
		"state_code": "TM",
		"country_code": "MX"
	},
	{
		"state_name": "Tlaxcala",
		"state_code": "TX",
		"country_code": "MX"
	},
	{
		"state_name": "Veracruz",
		"state_code": "VZ",
		"country_code": "MX"
	},
	{
		"state_name": "Zacatecas",
		"state_code": "ZA",
		"country_code": "MX"
	},
	{
		"state_name": "Johor",
		"state_code": "JH",
		"country_code": "MY"
	},
	{
		"state_name": "Kedah",
		"state_code": "KD",
		"country_code": "MY"
	},
	{
		"state_name": "Kelantan",
		"state_code": "KT",
		"country_code": "MY"
	},
	{
		"state_name": "Kuala Lumpur",
		"state_code": "KL",
		"country_code": "MY"
	},
	{
		"state_name": "Labuan",
		"state_code": "LB",
		"country_code": "MY"
	},
	{
		"state_name": "Melaka",
		"state_code": "ML",
		"country_code": "MY"
	},
	{
		"state_name": "Negeri Sembilan",
		"state_code": "NS",
		"country_code": "MY"
	},
	{
		"state_name": "Pahang",
		"state_code": "PH",
		"country_code": "MY"
	},
	{
		"state_name": "Perak",
		"state_code": "PK",
		"country_code": "MY"
	},
	{
		"state_name": "Perlis",
		"state_code": "PR",
		"country_code": "MY"
	},
	{
		"state_name": "Pulau Pinang",
		"state_code": "PP",
		"country_code": "MY"
	},
	{
		"state_name": "Putrajaya",
		"state_code": "PJ",
		"country_code": "MY"
	},
	{
		"state_name": "Sabah",
		"state_code": "SB",
		"country_code": "MY"
	},
	{
		"state_name": "Sarawak",
		"state_code": "SW",
		"country_code": "MY"
	},
	{
		"state_name": "Selangor",
		"state_code": "SL",
		"country_code": "MY"
	},
	{
		"state_name": "Terengganu",
		"state_code": "TG",
		"country_code": "MY"
	},
	{
		"state_name": "Alba",
		"state_code": "AB",
		"country_code": "RO"
	},
	{
		"state_name": "Arad",
		"state_code": "AR",
		"country_code": "RO"
	},
	{
		"state_name": "Arges",
		"state_code": "AG",
		"country_code": "RO"
	},
	{
		"state_name": "Bacau",
		"state_code": "BC",
		"country_code": "RO"
	},
	{
		"state_name": "Bihor",
		"state_code": "BH",
		"country_code": "RO"
	},
	{
		"state_name": "Bistrita-Nasaud",
		"state_code": "BN",
		"country_code": "RO"
	},
	{
		"state_name": "Botosani",
		"state_code": "BT",
		"country_code": "RO"
	},
	{
		"state_name": "Braila",
		"state_code": "BR",
		"country_code": "RO"
	},
	{
		"state_name": "Brasov",
		"state_code": "BV",
		"country_code": "RO"
	},
	{
		"state_name": "Bucuresti",
		"state_code": "B",
		"country_code": "RO"
	},
	{
		"state_name": "Buzau",
		"state_code": "BZ",
		"country_code": "RO"
	},
	{
		"state_name": "Calarasi",
		"state_code": "CL",
		"country_code": "RO"
	},
	{
		"state_name": "Caras Severin",
		"state_code": "CS",
		"country_code": "RO"
	},
	{
		"state_name": "Cluj",
		"state_code": "CJ",
		"country_code": "RO"
	},
	{
		"state_name": "Constanta",
		"state_code": "CT",
		"country_code": "RO"
	},
	{
		"state_name": "Covasna",
		"state_code": "CV",
		"country_code": "RO"
	},
	{
		"state_name": "Dambovita",
		"state_code": "DB",
		"country_code": "RO"
	},
	{
		"state_name": "Dolj",
		"state_code": "DJ",
		"country_code": "RO"
	},
	{
		"state_name": "Galati",
		"state_code": "GL",
		"country_code": "RO"
	},
	{
		"state_name": "Giurgiu",
		"state_code": "GR",
		"country_code": "RO"
	},
	{
		"state_name": "Gorj",
		"state_code": "GJ",
		"country_code": "RO"
	},
	{
		"state_name": "Hargita",
		"state_code": "HR",
		"country_code": "RO"
	},
	{
		"state_name": "Hunedoara",
		"state_code": "HD",
		"country_code": "RO"
	},
	{
		"state_name": "Ialomita",
		"state_code": "IL",
		"country_code": "RO"
	},
	{
		"state_name": "Iasi",
		"state_code": "IS",
		"country_code": "RO"
	},
	{
		"state_name": "Ilfov",
		"state_code": "IF",
		"country_code": "RO"
	},
	{
		"state_name": "Maramures",
		"state_code": "MM",
		"country_code": "RO"
	},
	{
		"state_name": "Mehedinti",
		"state_code": "MH",
		"country_code": "RO"
	},
	{
		"state_name": "Mures",
		"state_code": "MS",
		"country_code": "RO"
	},
	{
		"state_name": "Neamt",
		"state_code": "NT",
		"country_code": "RO"
	},
	{
		"state_name": "Olt",
		"state_code": "OT",
		"country_code": "RO"
	},
	{
		"state_name": "Prahova",
		"state_code": "PH",
		"country_code": "RO"
	},
	{
		"state_name": "Salaj",
		"state_code": "SJ",
		"country_code": "RO"
	},
	{
		"state_name": "Satu Mare",
		"state_code": "SM",
		"country_code": "RO"
	},
	{
		"state_name": "Sibiu",
		"state_code": "SB",
		"country_code": "RO"
	},
	{
		"state_name": "Suceava",
		"state_code": "SV",
		"country_code": "RO"
	},
	{
		"state_name": "Teleorman",
		"state_code": "TR",
		"country_code": "RO"
	},
	{
		"state_name": "Timis",
		"state_code": "TM",
		"country_code": "RO"
	},
	{
		"state_name": "Tulcea",
		"state_code": "TL",
		"country_code": "RO"
	},
	{
		"state_name": "Valcea",
		"state_code": "VL",
		"country_code": "RO"
	},
	{
		"state_name": "Vaslui",
		"state_code": "VS",
		"country_code": "RO"
	},
	{
		"state_name": "Vreancea",
		"state_code": "VN",
		"country_code": "RO"
	},
	{
		"state_name": "Alabama",
		"state_code": "AL",
		"country_code": "US"
	},
	{
		"state_name": "Alaska",
		"state_code": "AK",
		"country_code": "US"
	},
	{
		"state_name": "Arizona",
		"state_code": "AZ",
		"country_code": "US"
	},
	{
		"state_name": "Arkansas",
		"state_code": "AR",
		"country_code": "US"
	},
	{
		"state_name": "California",
		"state_code": "CA",
		"country_code": "US"
	},
	{
		"state_name": "Colorado",
		"state_code": "CO",
		"country_code": "US"
	},
	{
		"state_name": "Connecticut",
		"state_code": "CT",
		"country_code": "US"
	},
	{
		"state_name": "Delaware",
		"state_code": "DE",
		"country_code": "US"
	},
	{
		"state_name": "District Of Columbia",
		"state_code": "DC",
		"country_code": "US"
	},
	{
		"state_name": "Florida",
		"state_code": "FL",
		"country_code": "US"
	},
	{
		"state_name": "Georgia",
		"state_code": "GA",
		"country_code": "US"
	},
	{
		"state_name": "Hawaii",
		"state_code": "HI",
		"country_code": "US"
	},
	{
		"state_name": "Idaho",
		"state_code": "ID",
		"country_code": "US"
	},
	{
		"state_name": "Illinois",
		"state_code": "IL",
		"country_code": "US"
	},
	{
		"state_name": "Indiana",
		"state_code": "IN",
		"country_code": "US"
	},
	{
		"state_name": "Iowa",
		"state_code": "IA",
		"country_code": "US"
	},
	{
		"state_name": "Kansas",
		"state_code": "KS",
		"country_code": "US"
	},
	{
		"state_name": "Kentucky",
		"state_code": "KY",
		"country_code": "US"
	},
	{
		"state_name": "Louisiana",
		"state_code": "LA",
		"country_code": "US"
	},
	{
		"state_name": "Maine",
		"state_code": "ME",
		"country_code": "US"
	},
	{
		"state_name": "Maryland",
		"state_code": "MD",
		"country_code": "US"
	},
	{
		"state_name": "Massachusetts",
		"state_code": "MA",
		"country_code": "US"
	},
	{
		"state_name": "Michigan",
		"state_code": "MI",
		"country_code": "US"
	},
	{
		"state_name": "Minnesota",
		"state_code": "MN",
		"country_code": "US"
	},
	{
		"state_name": "Mississippi",
		"state_code": "MS",
		"country_code": "US"
	},
	{
		"state_name": "Missouri",
		"state_code": "MO",
		"country_code": "US"
	},
	{
		"state_name": "Montana",
		"state_code": "MT",
		"country_code": "US"
	},
	{
		"state_name": "Nebraska",
		"state_code": "NE",
		"country_code": "US"
	},
	{
		"state_name": "Nevada",
		"state_code": "NV",
		"country_code": "US"
	},
	{
		"state_name": "New Hampshire",
		"state_code": "NH",
		"country_code": "US"
	},
	{
		"state_name": "New Jersey",
		"state_code": "NJ",
		"country_code": "US"
	},
	{
		"state_name": "New Mexico",
		"state_code": "NM",
		"country_code": "US"
	},
	{
		"state_name": "New York",
		"state_code": "NY",
		"country_code": "US"
	},
	{
		"state_name": "North Carolina",
		"state_code": "NC",
		"country_code": "US"
	},
	{
		"state_name": "North Dakota",
		"state_code": "ND",
		"country_code": "US"
	},
	{
		"state_name": "Ohio",
		"state_code": "OH",
		"country_code": "US"
	},
	{
		"state_name": "Oklahoma",
		"state_code": "OK",
		"country_code": "US"
	},
	{
		"state_name": "Oregon",
		"state_code": "OR",
		"country_code": "US"
	},
	{
		"state_name": "Pennsylvania",
		"state_code": "PA",
		"country_code": "US"
	},
	{
		"state_name": "Rhode Island",
		"state_code": "RI",
		"country_code": "US"
	},
	{
		"state_name": "South Carolina",
		"state_code": "SC",
		"country_code": "US"
	},
	{
		"state_name": "South Dakota",
		"state_code": "SD",
		"country_code": "US"
	},
	{
		"state_name": "Tennessee",
		"state_code": "TN",
		"country_code": "US"
	},
	{
		"state_name": "Texas",
		"state_code": "TX",
		"country_code": "US"
	},
	{
		"state_name": "Utah",
		"state_code": "UT",
		"country_code": "US"
	},
	{
		"state_name": "Vermont",
		"state_code": "VT",
		"country_code": "US"
	},
	{
		"state_name": "Virginia",
		"state_code": "VA",
		"country_code": "US"
	},
	{
		"state_name": "Washington",
		"state_code": "WA",
		"country_code": "US"
	},
	{
		"state_name": "West Virginia",
		"state_code": "WV",
		"country_code": "US"
	},
	{
		"state_name": "Wisconsin",
		"state_code": "WI",
		"country_code": "US"
	},
	{
		"state_name": "Wyoming",
		"state_code": "WY",
		"country_code": "US"
	}
]