[
	{
		"id": "973",
		"theme_code": "23",
		"slot_code": "23J",
		"page_id": "138",
		"object_type": "img",
		"object_value": "http:\/\/app.getsnapps.com\/app_202\/content\/231\/MenuUtama\/231_contactus_1511270420.jpg",
		"attribute": "",
		"action_type": "plugin",
		"action_value": "263",
		"user_id": "231",
		"remark": null,
		"date_updated": "2015-12-02 12:16:40",
		"add_to_cart": "0"
	},
	{
		"id": "972",
		"theme_code": "23",
		"slot_code": "23I",
		"page_id": "138",
		"object_type": "img",
		"object_value": "http:\/\/app.getsnapps.com\/app_202\/content\/231\/MenuUtama\/231_gallery_1511270453.jpg",
		"attribute": "",
		"action_type": "plugin",
		"action_value": "262",
		"user_id": "231",
		"remark": null,
		"date_updated": "2015-12-02 12:16:34",
		"add_to_cart": "0"
	},
	{
		"id": "971",
		"theme_code": "23",
		"slot_code": "23H",
		"page_id": "138",
		"object_type": "img",
		"object_value": "http:\/\/app.getsnapps.com\/app_202\/content\/231\/231_pricecalculationmenu_1512280402.png",
		"attribute": "10",
		"action_type": "page",
		"action_value": "143",
		"user_id": "231",
		"remark": null,
		"date_updated": "2015-12-28 16:55:13",
		"add_to_cart": "0"
	},
	{
		"id": "970",
		"theme_code": "23",
		"slot_code": "23G",
		"page_id": "138",
		"object_type": "img",
		"object_value": "http:\/\/app.getsnapps.com\/app_202\/content\/231\/MenuUtama\/231_authorizeddealer_1511270408.jpg",
		"attribute": "",
		"action_type": "plugin",
		"action_value": "261",
		"user_id": "231",
		"remark": null,
		"date_updated": "2015-12-02 12:16:28",
		"add_to_cart": "0"
	},
	{
		"id": "969",
		"theme_code": "23",
		"slot_code": "23F",
		"page_id": "138",
		"object_type": "img",
		"object_value": "http:\/\/app.getsnapps.com\/app_202\/content\/231\/MenuUtama\/231_newsandtips_1511270409.jpg",
		"attribute": "",
		"action_type": "page",
		"action_value": "150",
		"user_id": "231",
		"remark": null,
		"date_updated": "2015-12-07 19:09:47",
		"add_to_cart": "0"
	},
	{
		"id": "968",
		"theme_code": "23",
		"slot_code": "23E",
		"page_id": "138",
		"object_type": "img",
		"object_value": "http:\/\/app.getsnapps.com\/app_202\/content\/231\/MenuUtama\/231_eventspromo_1511270443.jpg",
		"attribute": "",
		"action_type": "page",
		"action_value": "149",
		"user_id": "231",
		"remark": null,
		"date_updated": "2015-12-07 19:09:35",
		"add_to_cart": "0"
	},
	{
		"id": "967",
		"theme_code": "23",
		"slot_code": "23D",
		"page_id": "138",
		"object_type": "img",
		"object_value": "http:\/\/app.getsnapps.com\/app_202\/content\/231\/MenuUtama\/231_cpf1product_1511270427.jpg",
		"attribute": "",
		"action_type": "plugin",
		"action_value": "257",
		"user_id": "231",
		"remark": null,
		"date_updated": "2015-12-02 12:15:49",
		"add_to_cart": "0"
	},
	{
		"id": "966",
		"theme_code": "23",
		"slot_code": "23C",
		"page_id": "138",
		"object_type": "img",
		"object_value": "http:\/\/app.getsnapps.com\/app_202\/content\/231\/MenuUtama\/231_productbenefit_1511270417.jpg",
		"attribute": "",
		"action_type": "plugin",
		"action_value": "256",
		"user_id": "231",
		"remark": null,
		"date_updated": "2015-12-02 12:15:41",
		"add_to_cart": "0"
	},
	{
		"id": "965",
		"theme_code": "23",
		"slot_code": "23B",
		"page_id": "138",
		"object_type": "img",
		"object_value": "http:\/\/app.getsnapps.com\/app_202\/content\/231\/231_aboutptjki2015_1512180224.png",
		"attribute": "",
		"action_type": "plugin",
		"action_value": "255",
		"user_id": "231",
		"remark": null,
		"date_updated": "2015-12-18 14:40:40",
		"add_to_cart": "0"
	},
	{
		"id": "964",
		"theme_code": "23",
		"slot_code": "23A",
		"page_id": "138",
		"object_type": "img",
		"object_value": "http:\/\/app.getsnapps.com\/app_202\/content\/231\/MenuUtama\/231_aboutcpf1_1511270450.jpg",
		"attribute": "",
		"action_type": "plugin",
		"action_value": "254",
		"user_id": "231",
		"remark": null,
		"date_updated": "2015-12-02 12:15:06",
		"add_to_cart": "0"
	},
	{
		"id": "974",
		"theme_code": "0",
		"slot_code": "MENU",
		"page_id": "138",
		"object_type": "0",
		"object_value": "",
		"attribute": null,
		"action_type": null,
		"action_value": null,
		"user_id": "231",
		"remark": "",
		"date_updated": "2016-01-24 23:17:31",
		"add_to_cart": "0"
	},
	{
		"id": "978",
		"theme_code": "1",
		"slot_code": "1A",
		"page_id": "141",
		"object_type": "feed",
		"object_value": "",
		"attribute": "265",
		"action_type": "plugin",
		"action_value": "265",
		"user_id": "231",
		"remark": null,
		"date_updated": "2015-12-04 10:49:31",
		"add_to_cart": "0"
	},
	{
		"id": "1032",
		"theme_code": "MENU",
		"slot_code": "MA",
		"page_id": "0",
		"object_type": "0",
		"object_value": "",
		"attribute": null,
		"action_type": null,
		"action_value": null,
		"user_id": "231",
		"remark": null,
		"date_updated": "2015-12-28 11:35:22",
		"add_to_cart": "0"
	},
	{
		"id": "983",
		"theme_code": "13",
		"slot_code": "13A",
		"page_id": "143",
		"object_type": "img",
		"object_value": "http:\/\/app.getsnapps.com\/app_202\/content\/231\/231_pricecalculationsubmenu_1512280411.png",
		"attribute": "10",
		"action_type": "page",
		"action_value": "141",
		"user_id": "231",
		"remark": null,
		"date_updated": "2015-12-28 16:54:36",
		"add_to_cart": "0"
	},
	{
		"id": "984",
		"theme_code": "13",
		"slot_code": "13B",
		"page_id": "143",
		"object_type": "img",
		"object_value": "http:\/\/app.getsnapps.com\/app_202\/content\/231\/231_carcategorysubmenu_1512280448.png",
		"attribute": "10",
		"action_type": "plugin",
		"action_value": "271",
		"user_id": "231",
		"remark": null,
		"date_updated": "2015-12-28 16:54:42",
		"add_to_cart": "0"
	},
	{
		"id": "985",
		"theme_code": "0",
		"slot_code": "MENU",
		"page_id": "143",
		"object_type": "0",
		"object_value": "",
		"attribute": null,
		"action_type": null,
		"action_value": null,
		"user_id": "231",
		"remark": "",
		"date_updated": "2016-01-24 23:17:48",
		"add_to_cart": "0"
	},
	{
		"id": "986",
		"theme_code": "0",
		"slot_code": "MENU",
		"page_id": "141",
		"object_type": "0",
		"object_value": "",
		"attribute": null,
		"action_type": null,
		"action_value": null,
		"user_id": "231",
		"remark": "",
		"date_updated": "2016-01-24 23:17:38",
		"add_to_cart": "0"
	},
	{
		"id": "1000",
		"theme_code": "13",
		"slot_code": "13A",
		"page_id": "149",
		"object_type": "img",
		"object_value": "http:\/\/app.getsnapps.com\/app_202\/content\/231\/231_eventsubmenu_1512180301.png",
		"attribute": "10",
		"action_type": "plugin",
		"action_value": "259",
		"user_id": "231",
		"remark": null,
		"date_updated": "2015-12-30 13:20:23",
		"add_to_cart": "0"
	},
	{
		"id": "1001",
		"theme_code": "13",
		"slot_code": "13B",
		"page_id": "149",
		"object_type": "img",
		"object_value": "http:\/\/app.getsnapps.com\/app_202\/content\/231\/231_promosubmenu_1512180307.png",
		"attribute": "10",
		"action_type": "plugin",
		"action_value": "280",
		"user_id": "231",
		"remark": null,
		"date_updated": "2015-12-18 15:09:17",
		"add_to_cart": "0"
	},
	{
		"id": "1002",
		"theme_code": "0",
		"slot_code": "MENU",
		"page_id": "149",
		"object_type": "0",
		"object_value": "",
		"attribute": null,
		"action_type": null,
		"action_value": null,
		"user_id": "231",
		"remark": "",
		"date_updated": "2016-01-24 23:17:43",
		"add_to_cart": "0"
	},
	{
		"id": "1003",
		"theme_code": "13",
		"slot_code": "13A",
		"page_id": "150",
		"object_type": "img",
		"object_value": "http:\/\/app.getsnapps.com\/app_202\/content\/231\/231_newssubmenu_1512280116.png",
		"attribute": "10",
		"action_type": "plugin",
		"action_value": "281",
		"user_id": "231",
		"remark": null,
		"date_updated": "2015-12-28 15:34:25",
		"add_to_cart": "0"
	},
	{
		"id": "1004",
		"theme_code": "13",
		"slot_code": "13B",
		"page_id": "150",
		"object_type": "img",
		"object_value": "http:\/\/app.getsnapps.com\/app_202\/content\/231\/231_tipssubmenu_1512280455.png",
		"attribute": "10",
		"action_type": "plugin",
		"action_value": "282",
		"user_id": "231",
		"remark": null,
		"date_updated": "2015-12-28 16:53:10",
		"add_to_cart": "0"
	},
	{
		"id": "1005",
		"theme_code": "0",
		"slot_code": "MENU",
		"page_id": "150",
		"object_type": "0",
		"object_value": "",
		"attribute": null,
		"action_type": null,
		"action_value": null,
		"user_id": "231",
		"remark": "",
		"date_updated": "2016-01-24 23:17:54",
		"add_to_cart": "0"
	},
	{
		"id": "1033",
		"theme_code": "MENU",
		"slot_code": "MB",
		"page_id": "0",
		"object_type": "0",
		"object_value": "",
		"attribute": null,
		"action_type": null,
		"action_value": null,
		"user_id": "231",
		"remark": null,
		"date_updated": "2015-12-28 11:35:22",
		"add_to_cart": "0"
	},
	{
		"id": "1034",
		"theme_code": "MENU",
		"slot_code": "MC",
		"page_id": "0",
		"object_type": "0",
		"object_value": "",
		"attribute": null,
		"action_type": null,
		"action_value": null,
		"user_id": "231",
		"remark": null,
		"date_updated": "2015-12-28 11:35:22",
		"add_to_cart": "0"
	},
	{
		"id": "1035",
		"theme_code": "MENU",
		"slot_code": "MD",
		"page_id": "0",
		"object_type": "0",
		"object_value": "",
		"attribute": null,
		"action_type": null,
		"action_value": null,
		"user_id": "231",
		"remark": null,
		"date_updated": "2015-12-28 11:35:22",
		"add_to_cart": "0"
	},
	{
		"id": "1036",
		"theme_code": "MENU",
		"slot_code": "ME",
		"page_id": "0",
		"object_type": "0",
		"object_value": "",
		"attribute": null,
		"action_type": null,
		"action_value": null,
		"user_id": "231",
		"remark": null,
		"date_updated": "2015-12-28 11:35:22",
		"add_to_cart": "0"
	},
	{
		"id": "1037",
		"theme_code": "MENU",
		"slot_code": "MF",
		"page_id": "0",
		"object_type": "0",
		"object_value": "",
		"attribute": null,
		"action_type": null,
		"action_value": null,
		"user_id": "231",
		"remark": null,
		"date_updated": "2015-12-28 11:35:22",
		"add_to_cart": "0"
	},
	{
		"id": "1828",
		"theme_code": "MENU-VER",
		"slot_code": "MVA",
		"page_id": "0",
		"object_type": "0",
		"object_value": "",
		"attribute": null,
		"action_type": null,
		"action_value": null,
		"user_id": "231",
		"remark": null,
		"date_updated": "2016-01-27 11:58:06",
		"add_to_cart": "0"
	},
	{
		"id": "1829",
		"theme_code": "MENU-VER",
		"slot_code": "MVB",
		"page_id": "0",
		"object_type": "0",
		"object_value": "",
		"attribute": null,
		"action_type": null,
		"action_value": null,
		"user_id": "231",
		"remark": null,
		"date_updated": "2016-01-27 11:58:06",
		"add_to_cart": "0"
	},
	{
		"id": "1830",
		"theme_code": "MENU-VER",
		"slot_code": "MVC",
		"page_id": "0",
		"object_type": "0",
		"object_value": "",
		"attribute": null,
		"action_type": null,
		"action_value": null,
		"user_id": "231",
		"remark": null,
		"date_updated": "2016-01-27 11:58:06",
		"add_to_cart": "0"
	},
	{
		"id": "1831",
		"theme_code": "MENU-VER",
		"slot_code": "MVD",
		"page_id": "0",
		"object_type": "0",
		"object_value": "",
		"attribute": null,
		"action_type": null,
		"action_value": null,
		"user_id": "231",
		"remark": null,
		"date_updated": "2016-01-27 11:58:06",
		"add_to_cart": "0"
	},
	{
		"id": "1832",
		"theme_code": "MENU-VER",
		"slot_code": "MVE",
		"page_id": "0",
		"object_type": "0",
		"object_value": "",
		"attribute": null,
		"action_type": null,
		"action_value": null,
		"user_id": "231",
		"remark": null,
		"date_updated": "2016-01-27 11:58:06",
		"add_to_cart": "0"
	},
	{
		"id": "1833",
		"theme_code": "MENU-VER",
		"slot_code": "MVF",
		"page_id": "0",
		"object_type": "0",
		"object_value": "",
		"attribute": null,
		"action_type": null,
		"action_value": null,
		"user_id": "231",
		"remark": null,
		"date_updated": "2016-01-27 11:58:06",
		"add_to_cart": "0"
	},
	{
		"id": "1834",
		"theme_code": "MENU-VER",
		"slot_code": "MVG",
		"page_id": "0",
		"object_type": "0",
		"object_value": "",
		"attribute": null,
		"action_type": null,
		"action_value": null,
		"user_id": "231",
		"remark": null,
		"date_updated": "2016-01-27 11:58:06",
		"add_to_cart": "0"
	},
	{
		"id": "1835",
		"theme_code": "MENU-VER",
		"slot_code": "MVH",
		"page_id": "0",
		"object_type": "0",
		"object_value": "",
		"attribute": null,
		"action_type": null,
		"action_value": null,
		"user_id": "231",
		"remark": null,
		"date_updated": "2016-01-27 11:58:06",
		"add_to_cart": "0"
	},
	{
		"id": "1836",
		"theme_code": "MENU-VER",
		"slot_code": "MVI",
		"page_id": "0",
		"object_type": "0",
		"object_value": "",
		"attribute": null,
		"action_type": null,
		"action_value": null,
		"user_id": "231",
		"remark": null,
		"date_updated": "2016-01-27 11:58:06",
		"add_to_cart": "0"
	},
	{
		"id": "1837",
		"theme_code": "MENU-VER",
		"slot_code": "MVJ",
		"page_id": "0",
		"object_type": "0",
		"object_value": "",
		"attribute": null,
		"action_type": null,
		"action_value": null,
		"user_id": "231",
		"remark": null,
		"date_updated": "2016-01-27 11:58:06",
		"add_to_cart": "0"
	},
	{
		"id": "1838",
		"theme_code": "MENU-VER",
		"slot_code": "MVK",
		"page_id": "0",
		"object_type": "0",
		"object_value": "",
		"attribute": null,
		"action_type": null,
		"action_value": null,
		"user_id": "231",
		"remark": null,
		"date_updated": "2016-01-27 11:58:06",
		"add_to_cart": "0"
	},
	{
		"id": "1839",
		"theme_code": "MENU-VER",
		"slot_code": "MVL",
		"page_id": "0",
		"object_type": "0",
		"object_value": "",
		"attribute": null,
		"action_type": null,
		"action_value": null,
		"user_id": "231",
		"remark": null,
		"date_updated": "2016-01-27 11:58:06",
		"add_to_cart": "0"
	},
	{
		"id": "1840",
		"theme_code": "MENU-VER",
		"slot_code": "MVM",
		"page_id": "0",
		"object_type": "0",
		"object_value": "",
		"attribute": null,
		"action_type": null,
		"action_value": null,
		"user_id": "231",
		"remark": null,
		"date_updated": "2016-01-27 11:58:06",
		"add_to_cart": "0"
	},
	{
		"id": "1841",
		"theme_code": "MENU-VER",
		"slot_code": "MVN",
		"page_id": "0",
		"object_type": "0",
		"object_value": "",
		"attribute": null,
		"action_type": null,
		"action_value": null,
		"user_id": "231",
		"remark": null,
		"date_updated": "2016-01-27 11:58:06",
		"add_to_cart": "0"
	},
	{
		"id": "1842",
		"theme_code": "MENU-VER",
		"slot_code": "MVO",
		"page_id": "0",
		"object_type": "0",
		"object_value": "",
		"attribute": null,
		"action_type": null,
		"action_value": null,
		"user_id": "231",
		"remark": null,
		"date_updated": "2016-01-27 11:58:06",
		"add_to_cart": "0"
	},
	{
		"id": "1843",
		"theme_code": "MENU-VER",
		"slot_code": "MVP",
		"page_id": "0",
		"object_type": "0",
		"object_value": "",
		"attribute": null,
		"action_type": null,
		"action_value": null,
		"user_id": "231",
		"remark": null,
		"date_updated": "2016-01-27 11:58:06",
		"add_to_cart": "0"
	},
	{
		"id": "1844",
		"theme_code": "MENU-VER",
		"slot_code": "MVQ",
		"page_id": "0",
		"object_type": "0",
		"object_value": "",
		"attribute": null,
		"action_type": null,
		"action_value": null,
		"user_id": "231",
		"remark": null,
		"date_updated": "2016-01-27 11:58:06",
		"add_to_cart": "0"
	},
	{
		"id": "1845",
		"theme_code": "MENU-VER",
		"slot_code": "MVR",
		"page_id": "0",
		"object_type": "0",
		"object_value": "",
		"attribute": null,
		"action_type": null,
		"action_value": null,
		"user_id": "231",
		"remark": null,
		"date_updated": "2016-01-27 11:58:06",
		"add_to_cart": "0"
	},
	{
		"id": "1846",
		"theme_code": "MENU-VER",
		"slot_code": "MVS",
		"page_id": "0",
		"object_type": "0",
		"object_value": "",
		"attribute": null,
		"action_type": null,
		"action_value": null,
		"user_id": "231",
		"remark": null,
		"date_updated": "2016-01-27 11:58:06",
		"add_to_cart": "0"
	},
	{
		"id": "1847",
		"theme_code": "MENU-VER",
		"slot_code": "MVT",
		"page_id": "0",
		"object_type": "0",
		"object_value": "",
		"attribute": null,
		"action_type": null,
		"action_value": null,
		"user_id": "231",
		"remark": null,
		"date_updated": "2016-01-27 11:58:06",
		"add_to_cart": "0"
	}
]